…
dna_extraction
```

    ## # A tibble: 51 × 10
    ##    site  till  amend landscape_position   rep mass_g nano_260_280 nano_260_230
    ##    <chr> <chr> <chr> <chr>              <dbl>  <dbl>        <dbl>        <dbl>
    ##  1 CREC  CT    A     <NA>                   1  0.249         1.76         1.38
    ##  2 CREC  CT    A     <NA>                   2  0.248         1.83         1.48
    ##  3 CREC  CT    A     <NA>                   3  0.249         1.81         0.65
    ##  4 CREC  CT    U     <NA>                   1  0.252         1.77         1.33
    ##  5 CREC  CT    U     <NA>                   2  0.248         1.79         1.93
    ##  6 CREC  CT    U     <NA>                   3  0.250         1.75         1.23
    ##  7 CREC  MT    U     <NA>                   1  0.249         1.7          1.01
    ##  8 CREC  MT    U     <NA>                   2  0.248         1.76         1.19
    ##  9 CREC  MT    U     <NA>                   3  0.25          1.84         1.43
    ## 10 CREC  NT    A     <NA>                   1  0.248         1.77         1.33
    ## # ℹ 41 more rows
    ## # ℹ 2 more variables: qubit_ng_ul <dbl>, qubit_ng_mL <dbl>
…
mcrA_data %>% arrange(site, till, amend, rep, landscape_position)
```

    ## # A tibble: 62 × 10
    ##    site  till  amend   rep  conc conc_min conc_max total_droplets
    ##    <chr> <chr> <chr> <dbl> <dbl>    <dbl>    <dbl>          <dbl>
    ##  1 CREC  CT    A         1  26       23       29            12996
    ##  2 CREC  CT    A         2  10.4      8.4     12.4          11959
    ##  3 CREC  CT    A         3  64.3     59.5     69            13414
    ##  4 CREC  CT    U         1   4        3        5.4          12820
    ##  5 CREC  CT    U         2   0       NA       NA            11998
    ##  6 CREC  CT    U         3   3.7      2.6      4.9          13234
    ##  7 CREC  CT    U         3   4.4      3.3      5.8          12733
    ##  8 CREC  MT    U         1   4.3      3.2      5.7          12232
    ##  9 CREC  MT    U         2   2.4      1.6      3.5          12342
    ## 10 CREC  MT    U         3   7.4      5.9      9.1          13239
    ## # ℹ 52 more rows
    ## # ℹ 2 more variables: landscape_position <chr>, target_gene <chr>
…
``` r
total_anaerobe
```

    ## # A tibble: 48 × 7
    ## # Groups:   site, till, amend, landscape_position [17]
    ##    site  till  amend landscape_position   rep anaerobe_copies_per_g count
    ##    <chr> <chr> <chr> <chr>              <dbl>                 <dbl> <int>
    ##  1 CREC  CT    A     <NA>                   1             58127300.     5
    ##  2 CREC  CT    A     <NA>                   2             63251238.     5
    ##  3 CREC  CT    A     <NA>                   3             84726515.     5
    ##  4 CREC  CT    U     <NA>                   1             49591671.     5
    ##  5 CREC  CT    U     <NA>                   2             64090647.     5
    ##  6 CREC  CT    U     <NA>                   3             57761702.     5
    ##  7 CREC  MT    U     <NA>                   1             43449404.     5
    ##  8 CREC  MT    U     <NA>                   2             62898705.     5
    ##  9 CREC  MT    U     <NA>                   3             78703568.     5
    ## 10 CREC  NT    A     <NA>                   1            119073250.     5
    ## # ℹ 38 more rows
…
