…
``` r
varpart_data_perc_c
```

    ## # A tibble: 43 × 40
    ##    till  ssa_m2_g perc_clay al_mmol_kg fe_mmol_kg mn_mmol_kg sro_mmol_kg   dsrAB
    ##    <fct>    <dbl>     <dbl>      <dbl>      <dbl>      <dbl>       <dbl>   <dbl>
    ##  1 CT        14.8      15.7       31.5       32.1      11.9         75.5  1.58e7
    ##  2 CT        18.4      16.9       31.2       27.0       8.60        66.8  1.01e7
    ##  3 CT        22.7      18.8       31.7       26.2       9.91        67.8  2.15e7
    ##  4 CT        18.4      16.3       35.8       30.5      10.4         76.7  1.65e7
    ##  5 MT        15.5      18.2       29.2       27.0       8.44        64.6  1.72e7
    ##  6 MT        23.1      20.1       32.9       28.7      11.1         72.6  2.16e7
    ##  7 MT        19.6      16.3       35.0       28.6       8.96        72.5  1.76e7
    ##  8 NT        22.2      19.4       38.9       37.2      11.9         88.0  1.86e7
    ##  9 NT        21.6      20.1       32.9       36.6      10.5         80.1  2.77e7
    ## 10 NT        22.9      16.9       32.5       31.6      10.3         74.5  1.53e7
    ## # ℹ 33 more rows
    ## # ℹ 32 more variables: gltA <dbl>, mcrA <dbl>, nirK <dbl>, nirS <dbl>,
    ## #   log_dsrAB <dbl>, log_gltA <dbl>, log_mcrA <dbl>, sqrt_nirK <dbl>,
    ## #   log_nirS <dbl>, log_16S <dbl>, pc1_values <dbl>, pc1_values_trans <dbl>,
    ## #   mean_wfps <dbl>, map_mm <dbl>, mat_c <dbl>, gdd0 <dbl>, gdd10 <dbl>,
    ## #   precip_in_7 <dbl>, precip_in_10 <dbl>, precip_in_14 <dbl>,
    ## #   avg_plant_mass_per_cm3 <dbl>, avg_bd <dbl>, avg_perc_c <dbl>, …
…
