…
multiple_reg_data_c
```

    ## # A tibble: 47 × 16
    ##    site  till  ssa_m2_g perc_clay sro_mmol_kg anaerobe_copies_per_g mat_c
    ##    <chr> <fct>    <dbl>     <dbl>       <dbl>                 <dbl> <dbl>
    ##  1 CREC  CT        22.7      18.8        80.7             58127300.   4.8
    ##  2 CREC  CT        21.0      19.4        74.6             63251238.   4.8
    ##  3 CREC  CT        14.8      15.7        75.5             84726515.   4.8
    ##  4 CREC  CT        18.4      16.9        66.8             49591671.   4.8
    ##  5 CREC  CT        22.7      18.8        67.8             64090647.   4.8
    ##  6 CREC  CT        18.4      16.3        76.7             57761702.   4.8
    ##  7 CREC  MT        15.5      18.2        64.6             43449404.   4.8
    ##  8 CREC  MT        23.1      20.1        72.6             62898705.   4.8
    ##  9 CREC  MT        19.6      16.3        72.5             78703568.   4.8
    ## 10 CREC  NT        22.2      19.4        88.0            119073250.   4.8
    ## # ℹ 37 more rows
    ## # ℹ 9 more variables: avg_plant_mass_per_cm3 <dbl>, avg_bd <dbl>,
    ## #   avg_perc_c <dbl>, ppm_n_nh4 <dbl>, ppm_n_nox <dbl>, wsa_perc <dbl>,
    ## #   cultivated <dbl>, amended <dbl>, red_no_till <dbl>
…
